PS2
…
## [1] TRUE

FALSE & NA

## [1] FALSE

Anything raised to 0 is 1. The pipe | means or so NA or TRUE will return TRUE because we can have either or. We cant have FALSE and NA since there is a FALSE so that statement itself will return FALSE.

1.7

1

arrange(flights, desc(is.na(arr_delay))) %>% select(arr_delay)

## # A tibble: 336,776 x 1
##    arr_delay
##        <dbl>
##  1        NA
##  2        NA
##  3        NA
##  4        NA
##  5        NA
##  6        NA
##  7        NA
##  8        NA
##  9        NA
## 10        NA
## # ... with 336,766 more rows

All the NAs are moved to the top. The display limit only shows NAs.

2

arrange(flights, desc(arr_delay))

## # A tibble: 336,776 x 19
##     year month   day dep_time sched_dep_time dep_delay arr_time
##    <int> <int> <int>    <int>          <int>     <dbl>    <int>
##  1  2013     1     9      641            900      1301     1242
##  2  2013     6    15     1432           1935      1137     1607
##  3  2013     1    10     1121           1635      1126     1239
##  4  2013     9    20     1139           1845      1014     1457
##  5  2013     7    22      845           1600      1005     1044
##  6  2013     4    10     1100           1900       960     1342
##  7  2013     3    17     2321            810       911      135
##  8  2013     7    22     2257            759       898      121
##  9  2013    12     5      756           1700       896     1058
## 10  2013     5     3     1133           2055       878     1250
## # ... with 336,766 more rows, and 12 more variables: sched_arr_time <int>,
## #   arr_delay <dbl>, carrier <chr>, flight <int>, tailnum <chr>,
## #   origin <chr>, dest <chr>, air_time <dbl>, distance <dbl>, hour <dbl>,
## #   minute <dbl>, time_hour <dttm>

Sort in descending order so the most delayed flights by arrival are on top.

3

arrange(flights, dep_delay)

## # A tibble: 336,776 x 19
##     year month   day dep_time sched_dep_time dep_delay arr_time
##    <int> <int> <int>    <int>          <int>     <dbl>    <int>
##  1  2013    12     7     2040           2123       -43       40
##  2  2013     2     3     2022           2055       -33     2240
##  3  2013    11    10     1408           1440       -32     1549
##  4  2013     1    11     1900           1930       -30     2233
##  5  2013     1    29     1703           1730       -27     1947
##  6  2013     8     9      729            755       -26     1002
##  7  2013    10    23     1907           1932       -25     2143
##  8  2013     3    30     2030           2055       -25     2213
##  9  2013     3     2     1431           1455       -24     1601
## 10  2013     5     5      934            958       -24     1225
## # ... with 336,766 more rows, and 12 more variables: sched_arr_time <int>,
## #   arr_delay <dbl>, carrier <chr>, flight <int>, tailnum <chr>,
## #   origin <chr>, dest <chr>, air_time <dbl>, distance <dbl>, hour <dbl>,
## #   minute <dbl>, time_hour <dttm>

Dep_delay as negative values left earliest relative to scheduled departures. Not in descending order because the variable values start with the most negative numbers and those are the ones that departed the earliest relative to scheduled departures.

4

new <- mutate(flights, timeinair = ifelse((arr_time - dep_time < 0),
    2400+(arr_time - dep_time), arr_time - dep_time))

arrange(new, timeinair)

## # A tibble: 336,776 x 20
##     year month   day dep_time sched_dep_time dep_delay arr_time
##    <int> <int> <int>    <int>          <int>     <dbl>    <int>
##  1  2013     1     5     1323           1325        -2     1358
##  2  2013     2    22     1312           1316        -4     1347
##  3  2013     9     3     1203           1153        10     1238
##  4  2013     8    14      722            730        -8      758
##  5  2013     8    18      722            729        -7      758
##  6  2013     9    24      718            725        -7      754
##  7  2013     3    27     1418           1329        49     1455
##  8  2013     5     8       16           2159       137       53
##  9  2013     9     4      717            725        -8      754
## 10  2013     2    24     1315           1320        -5     1353
## # ... with 336,766 more rows, and 13 more variables: sched_arr_time <int>,
## #   arr_delay <dbl>, carrier <chr>, flight <int>, tailnum <chr>,
## #   origin <chr>, dest <chr>, air_time <dbl>, distance <dbl>, hour <dbl>,
## #   minute <dbl>, time_hour <dttm>, timeinair <dbl>

If flights took off at 11:59 or 23:59, we would take the difference to find time in the air, but it would be negative because arrival time is smaller than departure time. We would then add another day to it, represented by 2400. The other case is that the time differences are not negative. We would then sort with ascending order to see the flights with shortest time in the air.

1.8

1

select(flights, dep_time, dep_delay, arr_time, arr_delay)

## # A tibble: 336,776 x 4
##    dep_time dep_delay arr_time arr_delay
##       <int>     <dbl>    <int>     <dbl>
##  1      517         2      830        11
##  2      533         4      850        20
##  3      542         2      923        33
##  4      544        -1     1004       -18
##  5      554        -6      812       -25
##  6      554        -4      740        12
##  7      555        -5      913        19
##  8      557        -3      709       -14
##  9      557        -3      838        -8
## 10      558        -2      753         8
## # ... with 336,766 more rows

#select(flights, "dep_time", "dep_delay", "arr_time", "arr_delay")
#select(flights, c(dep_time, dep_delay, arr_time, arr_delay))

3 ways to select the 4 columns and display the same thing.

2

select(flights, dep_time, dep_time, dep_time)

## # A tibble: 336,776 x 1
##    dep_time
##       <int>
##  1      517
##  2      533
##  3      542
##  4      544
##  5      554
##  6      554
##  7      555
##  8      557
##  9      557
## 10      558
## # ... with 336,766 more rows

We would get the variables column once regardless of how many times the name is repeated.

3

vars <- c("year", "month", "day", "dep_delay", "arr_delay")
select(flights, one_of(vars))

## # A tibble: 336,776 x 5
##     year month   day dep_delay arr_delay
##    <int> <int> <int>     <dbl>     <dbl>
##  1  2013     1     1         2        11
##  2  2013     1     1         4        20
##  3  2013     1     1         2        33
##  4  2013     1     1        -1       -18
##  5  2013     1     1        -6       -25
##  6  2013     1     1        -4        12
##  7  2013     1     1        -5        19
##  8  2013     1     1        -3       -14
##  9  2013     1     1        -3        -8
## 10  2013     1     1        -2         8
## # ... with 336,766 more rows

We can select variables based off names. One_of selects the variables in the vector and gives values associated with that variable. It is helpful because if you want to select many variables, it would be easier to just use one_of so we select all the variables at once.

4

select(flights, contains("TIME"))

## # A tibble: 336,776 x 6
##    dep_time sched_dep_time arr_time sched_arr_time air_time
##       <int>          <int>    <int>          <int>    <dbl>
##  1      517            515      830            819      227
##  2      533            529      850            830      227
##  3      542            540      923            850      160
##  4      544            545     1004           1022      183
##  5      554            600      812            837      116
##  6      554            558      740            728      150
##  7      555            600      913            854      158
##  8      557            600      709            723       53
##  9      557            600      838            846      140
## 10      558            600      753            745      138
## # ... with 336,766 more rows, and 1 more variables: time_hour <dttm>
…
Code is not surprising since it returns all the columns with variable names that include time in, but its ability to recognize the words without case sensitivities is surprising. By default, select ignores case. If it ignores case, it doesnt return anything because no variables have names with capital letters in them.

1.9

1

mutate(flights, dep_time_new = (dep_time %/% 100) * 60 + 
         (dep_time %% 100))

## # A tibble: 336,776 x 20
##     year month   day dep_time sched_dep_time dep_delay arr_time
##    <int> <int> <int>    <int>          <int>     <dbl>    <int>
##  1  2013     1     1      517            515         2      830
##  2  2013     1     1      533            529         4      850
##  3  2013     1     1      542            540         2      923
##  4  2013     1     1      544            545        -1     1004
##  5  2013     1     1      554            600        -6      812
##  6  2013     1     1      554            558        -4      740
##  7  2013     1     1      555            600        -5      913
##  8  2013     1     1      557            600        -3      709
##  9  2013     1     1      557            600        -3      838
## 10  2013     1     1      558            600        -2      753
## # ... with 336,766 more rows, and 13 more variables: sched_arr_time <int>,
## #   arr_delay <dbl>, carrier <chr>, flight <int>, tailnum <chr>,
## #   origin <chr>, dest <chr>, air_time <dbl>, distance <dbl>, hour <dbl>,
## #   minute <dbl>, time_hour <dttm>, dep_time_new <dbl>

mutate(flights, sched_dep_time_new = (sched_dep_time %/% 100) * 60 +
         (sched_dep_time %% 100))

## # A tibble: 336,776 x 20
##     year month   day dep_time sched_dep_time dep_delay arr_time
##    <int> <int> <int>    <int>          <int>     <dbl>    <int>
##  1  2013     1     1      517            515         2      830
##  2  2013     1     1      533            529         4      850
##  3  2013     1     1      542            540         2      923
##  4  2013     1     1      544            545        -1     1004
##  5  2013     1     1      554            600        -6      812
##  6  2013     1     1      554            558        -4      740
##  7  2013     1     1      555            600        -5      913
##  8  2013     1     1      557            600        -3      709
##  9  2013     1     1      557            600        -3      838
## 10  2013     1     1      558            600        -2      753
## # ... with 336,766 more rows, and 13 more variables: sched_arr_time <int>,
## #   arr_delay <dbl>, carrier <chr>, flight <int>, tailnum <chr>,
## #   origin <chr>, dest <chr>, air_time <dbl>, distance <dbl>, hour <dbl>,
## #   minute <dbl>, time_hour <dttm>, sched_dep_time_new <dbl>
…
4

head(ifelse(flights$calcair_time == flights$air_time +- 15 , "yes", "no"), 10)

##  [1] "no" "no" "no" "no" "no" "no" "no" "no" "no" "no"

An error tolerance can be 15 minutes because the DOT counts departing 15 minutes later than original scheduled time to be delayed. I only printed the first 10 rows but a large fraction of calculated air_time is still different from the original air_time.

5

mutate(flights, sched_dep_time = (sched_dep_time %/% 100) * 60 +
         (sched_dep_time %% 100), dep_time = (dep_time %/% 100) * 60 +
         (dep_time %% 100)) 

## # A tibble: 336,776 x 22
##     year month   day dep_time sched_dep_time dep_delay arr_time
##    <int> <int> <int>    <dbl>          <dbl>     <dbl>    <int>
##  1  2013     1     1      317            315         2      830
##  2  2013     1     1      333            329         4      850
##  3  2013     1     1      342            340         2      923
##  4  2013     1     1      344            345        -1     1004
##  5  2013     1     1      354            360        -6      812
##  6  2013     1     1      354            358        -4      740
##  7  2013     1     1      355            360        -5      913
##  8  2013     1     1      357            360        -3      709
##  9  2013     1     1      357            360        -3      838
## 10  2013     1     1      358            360        -2      753
## # ... with 336,766 more rows, and 15 more variables: sched_arr_time <int>,
## #   arr_delay <dbl>, carrier <chr>, flight <int>, tailnum <chr>,
## #   origin <chr>, dest <chr>, air_time <dbl>, distance <dbl>, hour <dbl>,
## #   minute <dbl>, time_hour <dttm>, dep_time_new <dbl>,
## #   arr_time_new <dbl>, calcair_time <dbl>
…
totflights <- bind_rows(chi.flights_Jan, chi.flights_Feb, chi.flights_March, chi.flights_April, chi.flights_May, chi.flights_June, chi.flights_July, chi.flights_Aug, chi.flights_Sept, chi.flights_Oct, chi.flights_Nov, chi.flights_Dec)

I saved my dataframe as totflights (total flights), not chiflights.

2.2

1

There is no unique identifier for each flight in the dataset.

2

print(totflights) #shows the first 10 rows

## # A tibble: 675,822 x 57
##     YEAR QUARTER MONTH DAY_OF_MONTH DAY_OF_WEEK    FL_DATE UNIQUE_CARRIER
##    <int>   <int> <int>        <int>       <int>     <date>          <chr>
##  1  2016       1     1            1           5 2016-01-01             AA
##  2  2016       1     1            3           7 2016-01-03             AA
##  3  2016       1     1            4           1 2016-01-04             AA
##  4  2016       1     1            1           5 2016-01-01             AA
##  5  2016       1     1            2           6 2016-01-02             AA
##  6  2016       1     1            3           7 2016-01-03             AA
##  7  2016       1     1            4           1 2016-01-04             AA
##  8  2016       1     1            5           2 2016-01-05             AA
##  9  2016       1     1            6           3 2016-01-06             AA
## 10  2016       1     1            7           4 2016-01-07             AA
## # ... with 675,812 more rows, and 50 more variables: AIRLINE_ID <int>,
## #   CARRIER <chr>, TAIL_NUM <chr>, FL_NUM <int>, ORIGIN_AIRPORT_ID <int>,
## #   ORIGIN_AIRPORT_SEQ_ID <int>, ORIGIN_CITY_MARKET_ID <int>,
## #   ORIGIN <chr>, ORIGIN_CITY_NAME <chr>, ORIGIN_STATE_ABR <chr>,
## #   ORIGIN_STATE_FIPS <chr>, ORIGIN_STATE_NM <chr>, DEST_AIRPORT_ID <int>,
## #   DEST_AIRPORT_SEQ_ID <int>, DEST_CITY_MARKET_ID <int>, DEST <chr>,
## #   DEST_CITY_NAME <chr>, DEST_STATE_ABR <chr>, DEST_STATE_FIPS <chr>,
## #   DEST_STATE_NM <chr>, DEST_WAC <int>, CRS_DEP_TIME <chr>,
## #   DEP_TIME <chr>, DEP_DELAY <dbl>, DEP_DELAY_NEW <dbl>, DEP_DEL15 <dbl>,
…
group_by(newflights, ORIGIN, DEST, ORIGIN_CITY_NAME, DEST_CITY_NAME) %>%
  count(ORIGIN) %>% arrange(desc(n)) #cities

## # A tibble: 26 x 5
## # Groups:   ORIGIN, DEST, ORIGIN_CITY_NAME, DEST_CITY_NAME [26]
##    ORIGIN  DEST       ORIGIN_CITY_NAME         DEST_CITY_NAME     n
##     <chr> <chr>                  <chr>                  <chr> <int>
##  1    ATL   PIA            Atlanta, GA             Peoria, IL  1022
##  2    PIA   ATL             Peoria, IL            Atlanta, GA  1022
##  3    BMI   ATL Bloomington/Normal, IL            Atlanta, GA  1003
##  4    ATL   BMI            Atlanta, GA Bloomington/Normal, IL  1002
##  5    MLI   ATL             Moline, IL            Atlanta, GA   943
##  6    ATL   MLI            Atlanta, GA             Moline, IL   942
##  7    DFW   SPI  Dallas/Fort Worth, TX        Springfield, IL   648
##  8    SPI   DFW        Springfield, IL  Dallas/Fort Worth, TX   648
##  9    DTW   PIA            Detroit, MI             Peoria, IL   576
## 10    PIA   DTW             Peoria, IL            Detroit, MI   575
## # ... with 16 more rows
…
