ps3
…
Source: https://stackoverflow.com/questions/23480248/overlapping-ggplot2-histograms-with-different-variables

About half, or slightly less, of the variation in average cost per episode across HHAs is accounted for by differences in case-mix. The normalized cost is used as a comparison against average cost per episode and we see that the overlap between the two datasets in the histogram is slightly less than half of the observations in average cost per episode.

4

prov_sum %>% 
  filter(State == "IL") %>% 
  select(`Provider ID`, `Agency Name`, 'State', 'avg_med_pay') %>%
  arrange(desc(avg_med_pay)) # highest billing per episode, no adjustment

## # A tibble: 664 x 4
## # Groups:   Provider ID, Agency Name [664]
##    `Provider ID`                         `Agency Name` State avg_med_pay
##            <dbl>                                 <chr> <chr>       <dbl>
##  1        147601             PRIME CARE RESOURCE,  INC    IL    5779.074
##  2        147898                     FORUM HEALTH CARE    IL    5314.030
##  3        148204               SIMPLY HOME HEALTH, LLC    IL    5247.407
##  4        148064            HOME BOUND HEALTHCARE, INC    IL    4935.185
##  5        148187             WHITESTAR HOME HEALTH INC    IL    4640.077
##  6        148244    ADVANCED FAMILY HOME HEALTH 1, INC    IL    4632.733
##  7        148015         BG HOME HEALTH PROVIDERS, LLC    IL    4549.191
##  8        147913            HOME BOUND HEALTHCARE, INC    IL    4486.917
##  9        148086            FIRST CARE HEALTHCARE, INC    IL    4419.998
## 10        148181 ALLIED PROFESSIONALS HEALTH CARE, LLC    IL    4304.542
## # ... with 654 more rows

prov_sum %>% 
  filter(State == "IL") %>% 
  select(`Provider ID`, `Agency Name`, 'State', 'normalized_cost') %>%
  arrange(desc(normalized_cost)) # normalized cost

## # A tibble: 664 x 4
## # Groups:   Provider ID, Agency Name [664]
##    `Provider ID`                                `Agency Name` State
##            <dbl>                                        <chr> <chr>
##  1        147612                  FAIRFIELD MEMORIAL HOSPITAL    IL
##  2        147178               HENDERSON COUNTY HEALTH DEPART    IL
##  3        147623                  BEST CARE HOME HEALTH, INC.    IL
##  4        147967             QUANTUM HEALTHCARE SERVICES, INC    IL
##  5        147126               SWEDISH COVENANT HOSPITAL HOME    IL
##  6        147536                 OPTION CARE ENTERPRISES, INC    IL
##  7        148252          WOUND & REHAB HOME HEALTH CARE, INC    IL
##  8        147280                SHAY HEALTHCARE SERVICES INC.    IL
##  9        148102                      LEGEND HOME HEALTH, LLC    IL
## 10        147740 NIGHTINGALE HOME HEALTHCARE OF ILLINOIS, INC    IL
## # ... with 654 more rows, and 1 more variables: normalized_cost <dbl>
…
The top 5 HHAs with the highest billing per episode after normalizing for case mix in Illinois are: FAIRFIELD MEMORIAL HOSPITAL HENDERSON COUNTY HEALTH DEPART BEST CARE HOME HEALTH, INC. QUANTUM HEALTHCARE SERVICES, INC SWEDISH COVENANT HOSPITAL HOME.

None of the HHAs overlapped between the two lists. If the OIG decided to try to push down costs at the 5 HHAs with the highest billing per episode, we still might not see an overlap because the normalized cost depends on the HCC, or patient risk, so pure cost decreases might not push the 5 HHAs into the upper regions of the list of normalized cost if they did not have high HCCs or high patient risks.

5

prov_sum <- prov_sum %>% 
  mutate(poss_overbill = avg_med_pay - normalized_cost) 
#created new possible overbilling variable

prov_sum %>% filter(State == "IL") %>% 
  arrange(desc(poss_overbill)) %>% 
  select(poss_overbill, everything())

## # A tibble: 664 x 9
## # Groups:   Provider ID, Agency Name [664]
##    poss_overbill `Provider ID`
##            <dbl>         <dbl>
##  1      2860.229        147601
##  2      2375.640        147898
##  3      2339.158        148204
##  4      2202.380        148187
##  5      2148.900        148064
##  6      1830.422        147913
##  7      1716.509        148244
##  8      1703.162        148086
##  9      1670.198        148352
## 10      1624.450        148015
## # ... with 654 more rows, and 7 more variables: `Agency Name` <chr>,
## #   State <chr>, avg_med_pay <dbl>, avg_hcc <dbl>, tot_episodes <dbl>,
## #   avg_cost_hcc <dbl>, normalized_cost <dbl>
…
