ps4
…
mpg

## # A tibble: 234 x 11
##    manufacturer model    displ  year   cyl trans   drv     cty   hwy fl   
##    <chr>        <chr>    <dbl> <int> <int> <chr>   <chr> <int> <int> <chr>
##  1 audi         a4        1.80  1999     4 auto(l f        18    29 p    
##  2 audi         a4        1.80  1999     4 manual f        21    29 p    
##  3 audi         a4        2.00  2008     4 manual f        20    31 p    
##  4 audi         a4        2.00  2008     4 auto(a f        21    30 p    
##  5 audi         a4        2.80  1999     6 auto(l f        16    26 p    
##  6 audi         a4        2.80  1999     6 manual f        18    26 p    
##  7 audi         a4        3.10  2008     6 auto(a f        18    27 p    
##  8 audi         a4 quat  1.80  1999     4 manual 4        18    26 p    
##  9 audi         a4 quat  1.80  1999     4 auto(l 4        16    25 p    
## 10 audi         a4 quat  2.00  2008     4 manual 4        20    28 p    
## # ... with 224 more rows, and 1 more variable: class <chr>
…
# shifts the second row's values to the right by one column 
# because filled with values from the left

Extra controls what happens when there are too many pieces in the column after separating. We can set extra to emit a warning and drop the extra pieces, drop without warning, or merge the extra pieces. Fill controls what happens when there are not enough pieces. It can emit a warning, or fill the missing values with values from the left or right.

9

# example from book
tidyr::who

## # A tibble: 7,240 x 60
##    country     iso2  iso3   year new_sp_m014 new_sp_m1524 new_sp_m2534
##    <chr>       <chr> <chr> <int>       <int>        <int>        <int>
##  1 Afghanistan AF    AFG    1980          NA           NA           NA
##  2 Afghanistan AF    AFG    1981          NA           NA           NA
##  3 Afghanistan AF    AFG    1982          NA           NA           NA
##  4 Afghanistan AF    AFG    1983          NA           NA           NA
##  5 Afghanistan AF    AFG    1984          NA           NA           NA
##  6 Afghanistan AF    AFG    1985          NA           NA           NA
##  7 Afghanistan AF    AFG    1986          NA           NA           NA
##  8 Afghanistan AF    AFG    1987          NA           NA           NA
##  9 Afghanistan AF    AFG    1988          NA           NA           NA
## 10 Afghanistan AF    AFG    1989          NA           NA           NA
## # ... with 7,230 more rows, and 53 more variables: new_sp_m3544 <int>,
## #   new_sp_m4554 <int>, new_sp_m5564 <int>, new_sp_m65 <int>,
## #   new_sp_f014 <int>, new_sp_f1524 <int>, new_sp_f2534 <int>,
## #   new_sp_f3544 <int>, new_sp_f4554 <int>, new_sp_f5564 <int>,
## #   new_sp_f65 <int>, new_sn_m014 <int>, new_sn_m1524 <int>,
## #   new_sn_m2534 <int>, new_sn_m3544 <int>, new_sn_m4554 <int>,
## #   new_sn_m5564 <int>, new_sn_m65 <int>, new_sn_f014 <int>,
## #   new_sn_f1524 <int>, new_sn_f2534 <int>, new_sn_f3544 <int>,
## #   new_sn_f4554 <int>, new_sn_f5564 <int>, new_sn_f65 <int>,
…
who_nas <- who %>%
  gather(new_sp_m014:newrel_f65, key = "key", value = "cases")
# did not drop NAs

who_nas %>% count(is.na(cases))

## # A tibble: 2 x 2
##   `is.na(cases)`      n
##   <lgl>           <int>
## 1 F               76046
## 2 T              329394

who_nas %>% filter(is.na(cases))

## # A tibble: 329,394 x 6
##    country     iso2  iso3   year key         cases
##    <chr>       <chr> <chr> <int> <chr>       <int>
##  1 Afghanistan AF    AFG    1980 new_sp_m014    NA
##  2 Afghanistan AF    AFG    1981 new_sp_m014    NA
##  3 Afghanistan AF    AFG    1982 new_sp_m014    NA
##  4 Afghanistan AF    AFG    1983 new_sp_m014    NA
##  5 Afghanistan AF    AFG    1984 new_sp_m014    NA
##  6 Afghanistan AF    AFG    1985 new_sp_m014    NA
##  7 Afghanistan AF    AFG    1986 new_sp_m014    NA
##  8 Afghanistan AF    AFG    1987 new_sp_m014    NA
##  9 Afghanistan AF    AFG    1988 new_sp_m014    NA
## 10 Afghanistan AF    AFG    1989 new_sp_m014    NA
## # ... with 329,384 more rows
…
## # A tibble: 1 x 2
##   `n_distinct(iso3)`     n
##                <int> <int>
## 1                219  7240

iso2 and iso3 are redundant with country because we see that there are 219 distinct values and 7240 observations for each of the three variables.

13

who_tidy %>% 
  group_by(country) %>% 
  summarise(count_by_country = sum(cases)) %>% 
  arrange(desc(count_by_country))

## # A tibble: 219 x 2
##    country                          count_by_country
##    <chr>                                       <int>
##  1 China                                     8389839
##  2 India                                     7098552
##  3 South Africa                              3010272
##  4 Indonesia                                 2909925
##  5 Bangladesh                                1524034
##  6 Viet Nam                                   965665
##  7 Democratic Republic of the Congo           960902
##  8 Philippines                                952828
##  9 Russian Federation                         926236
## 10 Pakistan                                   905629
## # ... with 209 more rows

total_year <- who_tidy %>% 
  group_by(year) %>% 
  summarise(count_by_year = sum(cases)) %>%
  arrange(desc(count_by_year))

print(total_year)

## # A tibble: 34 x 2
##     year count_by_year
##    <int>         <int>
##  1  2010       3986811
##  2  2011       3977151
##  3  2012       3962589
##  4  2007       3836674
##  5  2009       3834194
##  6  2008       3535278
##  7  2013       3220572
##  8  2006       2996524
##  9  2005       2364023
## 10  2004       2184924
## # ... with 24 more rows
…
## # A tibble: 2 x 2
##   sex   count_by_sex
##   <chr>        <int>
## 1 m         27490494
## 2 f         15907024

# by country, year, sex simultaneously
who_tidy %>% 
  group_by(country, year, sex) %>% 
  summarise(total = sum(cases))

## # A tibble: 6,921 x 4
## # Groups:   country, year [?]
##    country      year sex   total
##    <chr>       <int> <chr> <int>
##  1 Afghanistan  1997 f       102
##  2 Afghanistan  1997 m        26
##  3 Afghanistan  1998 f      1207
##  4 Afghanistan  1998 m       571
##  5 Afghanistan  1999 f       517
##  6 Afghanistan  1999 m       228
##  7 Afghanistan  2000 f      1751
##  8 Afghanistan  2000 m       915
##  9 Afghanistan  2001 f      3062
## 10 Afghanistan  2001 m      1577
## # ... with 6,911 more rows
…
