r4ds_ps6
…
factor(x_dups, levels = unique(x_dups))

## [1] Dec Apr Jan Mar Mar Dec
## Levels: Dec Apr Jan Mar

#factor(x_dups, levels = x_dups) commented because will return factor level duplicate error

The first output with unique produces the same output as the second without the unique operator. All the x values are unique already and therefore did not require the unique operator. In the vector x_dups, including the unique operator returns non-duplicate levels. Without the unique operator, R throws an error saying that levels are duplicates.

2

forcats::gss_cat

## # A tibble: 21,483 x 9
##     year marital         age race  rincome  partyid  relig  denom  tvhours
##    <int> <fct>         <int> <fct> <fct>    <fct>    <fct>  <fct>    <int>
##  1  2000 Never married    26 White $8000 t Ind,nea Prote South      12
##  2  2000 Divorced         48 White $8000 t Not str Prote Bapti      NA
##  3  2000 Widowed          67 White Not app Indepen Prote No de       2
##  4  2000 Never married    39 White Not app Ind,nea Ortho Not a       4
##  5  2000 Divorced         25 White Not app Not str None   Not a       1
##  6  2000 Married          25 White $20000  Strong  Prote South      NA
##  7  2000 Never married    36 White $25000  Not str Chris Not a       3
##  8  2000 Divorced         44 White $7000 t Ind,nea Prote Luthe      NA
##  9  2000 Married          44 White $25000  Not str Prote Other        0
## 10  2000 Married          47 White $25000  Strong  Prote South       3
## # ... with 21,473 more rows
…
gss_cat %>% 
  mutate(rincome_cat = fct_collapse(rincome,
               other = c("No answer", "Don't know", "Refused", "Not applicable"),
               `lt1000` = c("Lt $1000"),
               `1000-4999` = c("$1000 to 2999", "$3000 to 3999", "$4000 to 4999"),
               `5000-9999` = c("$5000 to 5999", "$6000 to 6999", "$7000 to 7999", "$8000 to 9999"),
               `10000-14999` = c("$10000 - 14999"),
               `15000-19999` = c("$15000 - 19999"),
               `20000-24999` = c("$20000 - 24999"),
               `25000higher` = c("$25000 or more")))

## # A tibble: 21,483 x 10
##     year marital     age race  rincome   partyid   relig   denom   tvhours
##    <int> <fct>     <int> <fct> <fct>     <fct>     <fct>   <fct>     <int>
##  1  2000 Never ma    26 White $8000 to Ind,near Protes Southe      12
##  2  2000 Divorced     48 White $8000 to Not str  Protes Baptis      NA
##  3  2000 Widowed      67 White Not appl Independ Protes No den       2
##  4  2000 Never ma    39 White Not appl Ind,near Orthod Not ap       4
##  5  2000 Divorced     25 White Not appl Not str  None    Not ap       1
##  6  2000 Married      25 White $20000 - Strong d Protes Southe      NA
##  7  2000 Never ma    36 White $25000 o Not str  Christ Not ap       3
##  8  2000 Divorced     44 White $7000 to Ind,near Protes Luther      NA
##  9  2000 Married      44 White $25000 o Not str  Protes Other         0
## 10  2000 Married      47 White $25000 o Strong r Protes Southe       3
## # ... with 21,473 more rows, and 1 more variable: rincome_cat <fct>
…
